<svg width="53" height="43" viewBox="0 0 53 43" fill="none" xmlns="http://www.w3.org/2000/svg">
<rect width="40.685" height="51.2993" fill="black" fill-opacity="0" transform="translate(1.61719 42.6924) rotate(-92.2791)"/>
<path d="M32.2325 1.63378C32.1129 1.75112 32.0524 1.90583 32.0512 2.06098L31.8123 25.6262L31.2077 25.6204C30.8734 25.6171 30.6 25.8853 30.5968 26.2196L30.5743 36.7037C30.5646 37.7049 31.3706 38.5267 32.3718 38.5364C32.8565 38.5411 33.3146 38.3566 33.6606 38.0173C34.0074 37.6772 34.2007 37.2227 34.2054 36.738L34.18 31.1195C35.5893 32.4531 37.8143 32.4528 39.211 31.083C40.6404 29.681 40.6628 27.3779 39.2609 25.9485C39.1589 25.8445 37.1672 23.8342 34.5315 22.5873C34.9523 22.3946 35.3356 22.1561 35.6531 21.8447C36.4606 21.0527 36.9229 19.8883 36.9832 18.4104C37.0476 16.8135 36.5719 15.4119 35.643 14.4648C35.2842 14.0989 34.8625 13.826 34.4021 13.6257C35.5295 12.372 36.1677 10.1124 36.1857 8.37435C36.1967 7.2817 35.9773 7.0807 35.5858 5.91683L41.3339 10.7775C41.5676 11.0159 41.5635 11.3999 41.3256 11.6333C41.0876 11.8667 40.7036 11.8634 40.4698 11.625L38.775 9.89693C38.6036 9.72224 38.3434 9.66793 38.1169 9.75932C37.8912 9.84824 37.7394 10.0699 37.7379 10.3148L37.7296 11.1705C37.7264 11.5048 37.9945 11.7782 38.3288 11.7814C38.4959 11.783 38.6478 11.7168 38.7584 11.6084L39.6058 12.4724C40.3067 13.1871 41.4583 13.1982 42.173 12.4973C42.8877 11.7963 42.8989 10.6447 42.198 9.93003L33.0884 1.64196C32.8541 1.40328 32.4713 1.39957 32.2325 1.63378ZM33.0457 23.2816C34.1739 23.6874 35.2339 24.3048 36.1071 24.9129C35.3841 25.0254 34.6878 25.3482 34.1268 25.8985C34.1218 25.9034 34.1185 25.9094 34.1135 25.9143C34.0058 25.7563 33.8341 25.6453 33.6282 25.6433L33.0228 25.6375L33.0457 23.2816ZM32.9959 36.7258C32.9919 37.0492 32.7076 37.328 32.3842 37.3257C32.0503 37.3229 31.7813 37.0487 31.785 36.7149L31.8014 26.8358L33.0114 26.8475L32.9959 36.7258ZM38.3972 26.7958C39.3319 27.7488 39.3165 29.2843 38.3639 30.2187C37.4112 31.153 35.8757 31.1386 34.9409 30.1855C34.0062 29.2324 34.0215 27.6969 34.9741 26.7625C35.9268 25.8282 37.4625 25.8428 38.3972 26.7958ZM35.7737 18.3618C35.692 20.3823 34.7773 21.5245 33.0603 21.7748L33.1308 14.5123C33.7825 14.5985 34.3376 14.8619 34.7791 15.3121C35.4618 16.0082 35.8238 17.1199 35.7737 18.3618ZM34.9757 8.36263C34.9578 10.1639 34.2539 12.2043 33.3516 12.9908C33.2814 13.053 33.2133 13.0823 33.1442 13.126L33.2445 3.79365C34.3031 5.43203 34.9932 6.56062 34.9757 8.36263Z" fill="#656565"/>
<rect width="29.1646" height="28.432" fill="black" fill-opacity="0" transform="translate(40.9023 24.9893) scale(-1 1) rotate(-53.1657)"/>
<path d="M23.2984 1.88221C23.6238 1.88142 23.8877 2.14437 23.8883 2.46946L23.9248 11.8287L23.9345 17.4042L25.3487 17.4009L25.3439 14.7926C25.3434 14.4676 25.6064 14.2034 25.9316 14.2026L28.1119 14.1973C28.268 14.1969 28.4179 14.2585 28.5285 14.3687C28.6393 14.4788 28.7014 14.6284 28.7017 14.7845L28.7073 17.9786L28.7074 17.9814L28.7073 17.9843L28.7182 24.1668L28.7241 27.5501C28.7248 27.8751 28.4616 28.1392 28.1366 28.14L25.9562 28.1454C25.8 28.1458 25.6501 28.0841 25.5395 27.9739C25.5193 27.9538 25.5007 27.9323 25.4838 27.9098C25.4082 27.8089 25.3665 27.6857 25.3664 27.5581L25.3615 24.7638L23.9472 24.7671L23.9526 27.8795C23.9532 28.2045 23.6901 28.4686 23.365 28.4695L22.6596 28.4712L22.6772 38.3448C22.6775 38.5009 22.6157 38.6508 22.5054 38.7614C22.3953 38.872 22.2456 38.9344 22.0895 38.9348L16.131 38.9488C15.9543 38.9493 15.7868 38.8703 15.6747 38.7338C15.6691 38.727 15.6638 38.7202 15.6586 38.7132C15.5584 38.5795 15.5196 38.409 15.5527 38.2443L17.9997 26.093C17.7352 25.9401 17.5067 25.7352 17.3262 25.4943C17.0435 25.1169 16.8787 24.6508 16.8779 24.1573C16.8768 23.5591 17.1087 22.9961 17.5309 22.5721C17.9532 22.148 18.5152 21.9137 19.1135 21.9122C19.4907 21.9113 19.8537 22.0031 20.1768 22.1767L20.1634 14.4261C20.1616 13.5776 20.4906 12.779 21.0897 12.1775C21.5478 11.7177 22.122 11.4158 22.7463 11.298L22.7108 2.47224C22.7102 2.14714 22.9734 1.88303 23.2984 1.88221ZM27.5254 15.3758L26.5225 15.3783L26.5262 17.3979L27.529 17.3956L27.5254 15.3758ZM23.9365 18.5815L23.9452 23.5901L25.3595 23.5867L25.3508 18.5782L23.9365 18.5815ZM26.5429 26.9668L27.5458 26.9643L27.5419 24.7587L26.539 24.7611L26.5429 26.9668ZM26.537 23.5838L27.5399 23.5814L27.5311 18.5729L26.5283 18.5753L26.537 23.5838ZM16.8493 37.7699L21.4987 37.759L21.482 28.379C21.1104 28.2572 20.7891 28.0233 20.5594 27.7166C20.3248 27.4034 20.1854 27.0148 20.1845 26.5943L20.1836 26.1204C19.8728 26.2896 19.5177 26.387 19.1406 26.3911L16.8493 37.7699ZM18.3651 23.4024C18.1648 23.6035 18.0549 23.8705 18.0554 24.1546C18.0561 24.6214 18.3661 25.0361 18.8117 25.1698C18.8183 25.1715 18.825 25.1731 18.8315 25.175C18.925 25.2014 19.0218 25.2146 19.1194 25.2142C19.7052 25.2128 20.1811 24.7348 20.1804 24.1488C20.1798 23.8655 20.0691 23.599 19.868 23.3987C19.6669 23.1986 19.3998 23.0887 19.1159 23.0894C18.8321 23.0901 18.5654 23.2013 18.3651 23.4024ZM21.9239 13.008C21.5469 13.3865 21.3399 13.8891 21.341 14.4232L21.3577 24.1461L21.3618 26.5913C21.3627 26.9804 21.6798 27.2962 22.0689 27.2954L22.7741 27.2937L22.7687 24.1821L22.7688 24.1808L22.758 17.9971L22.758 17.9956L22.758 17.9944L22.7486 12.508C22.4403 12.6032 22.158 12.7729 21.9239 13.008Z" fill="#656565"/>
<path d="M20.1103 31.9503C20.4354 31.9487 20.7003 32.2108 20.7015 32.536L20.7173 36.156C20.7188 36.4811 20.4563 36.7459 20.1312 36.7475C19.9373 36.7485 19.7649 36.6556 19.657 36.5116C19.584 36.4141 19.5405 36.2931 19.54 36.1618L19.5242 32.5418C19.5227 32.2167 19.7851 31.9519 20.1103 31.9503Z" fill="#656565"/>
<path d="M20.5772 30.6026C21.0312 31.2088 20.0893 31.9158 19.6346 31.3087C19.1806 30.7026 20.1225 29.9956 20.5772 30.6026Z" fill="#656565"/>
</svg>
