<svg width="10" height="11" viewBox="0 0 10 11" fill="none" xmlns="http://www.w3.org/2000/svg">
<path d="M4.32044 4.00209L1.87152 1.73362C1.20432 1.11558 1.64162 0 2.55108 0H7.44892C8.35838 0 8.79568 1.11558 8.12848 1.73362L5.67956 4.00209C5.29613 4.35727 4.70387 4.35727 4.32044 4.00209Z" transform="translate(0 4.63135) scale(1 -1)" fill="#333333"/>
<rect width="7.52632" height="1.76471" rx="0.882353" transform="translate(5.88281 11) scale(1 -1) rotate(90)" fill="#333333"/>
</svg>
