<svg width="29" height="33" viewBox="0 0 29 33" fill="none" xmlns="http://www.w3.org/2000/svg">
<path d="M18.6394 11.4464V11.4463C18.6371 11.4469 18.6348 11.4476 18.6394 11.4464Z" fill="#656565"/>
<path d="M8.54862 2.83984C5.90263 2.83984 3.75 4.99774 3.75 7.65005C3.75 10.3024 5.90263 12.4603 8.54862 12.4603C11.1946 12.4603 13.3472 10.3025 13.3472 7.65005C13.3472 4.99774 11.1947 2.83984 8.54862 2.83984ZM8.54862 11.1713C6.61177 11.1713 5.03602 9.59171 5.03602 7.65018C5.03602 5.70866 6.61177 4.1291 8.54862 4.1291C10.4855 4.1291 12.0613 5.70866 12.0612 7.65018C12.0613 9.59171 10.4855 11.1713 8.54862 11.1713Z" fill="#656565"/>
<path d="M28.2311 31.7111H26.4912C25.5639 31.7111 24.8094 30.9549 24.8094 30.0252V24.4258C24.8094 24.0698 24.5215 23.7812 24.1664 23.7812C23.8114 23.7812 23.5234 24.0698 23.5234 24.4258V30.0252C23.5234 31.6656 24.8549 33.0002 26.4912 33.0002H28.2311C28.5862 33.0002 28.8741 32.7116 28.8741 32.3557C28.8741 31.9997 28.5862 31.7111 28.2311 31.7111Z" fill="#656565"/>
<path d="M26.4997 1.87844C25.9635 1.54135 25.3033 1.50499 24.7335 1.78105L21.5589 3.31955L10.0778 0.167139C10.0643 0.163401 10.0508 0.160178 10.0371 0.157407C7.78195 -0.306012 5.46548 0.264915 3.68173 1.72368C1.89798 3.18245 0.875 5.34254 0.875 7.6501C0.875 9.95772 1.89804 12.1179 3.6818 13.5766C4.23444 14.0285 4.83819 14.3953 5.47552 14.6724C6.25056 17.269 7.14681 20.9007 8.44499 26.6998C9.48764 31.3573 11.6499 31.7714 12.0729 31.8071C12.0908 31.8086 12.1088 31.8094 12.1268 31.8094H17.1929C18.8294 31.8094 20.1607 30.4747 20.1607 28.8344V17.8951C20.1607 16.9655 20.9151 16.2092 21.8425 16.2092C22.7699 16.2092 23.5243 16.9655 23.5243 17.8951V21.5485C23.5243 21.9044 23.8122 22.1931 24.1673 22.1931C24.5224 22.1931 24.8103 21.9044 24.8103 21.5485V17.8951C24.8103 16.2547 23.4789 14.9202 21.8425 14.9202C20.2061 14.9202 18.8747 16.2548 18.8747 17.8951V28.8344C18.8747 29.764 18.1203 30.5203 17.1929 30.5203H15.5111C15.8609 29.6814 16.293 28.586 16.7518 27.2846C16.7519 27.2844 16.752 27.2841 16.752 27.2838C16.9794 26.6401 17.1985 25.9852 17.4031 25.3374C17.8419 23.9497 17.6393 22.3284 16.7835 20.3809C16.7768 20.3656 16.7695 20.3505 16.7616 20.3358L15.8509 18.6349C15.8504 18.634 15.85 18.6331 15.8495 18.6321C15.1908 17.4028 14.2795 15.7022 13.4742 14.2005L21.5589 11.9806L24.7335 13.5191C24.9874 13.6421 25.2591 13.7032 25.5299 13.7031C25.8669 13.7031 26.2024 13.6086 26.4996 13.4218C27.0358 13.0847 27.3558 12.5046 27.3558 11.8702V3.43008C27.356 2.79554 27.0358 2.21553 26.4997 1.87844ZM15.074 19.9097L15.6166 20.9231C16.3323 22.5605 16.5158 23.8771 16.1771 24.9481C16.0475 25.3584 15.912 25.7714 15.7722 26.1826C14.5838 25.4892 13.8211 24.1958 13.8211 22.7882C13.8212 21.68 14.2797 20.6457 15.074 19.9097ZM14.4507 18.7458C13.2416 19.7308 12.5352 21.2025 12.5352 22.7882C12.5352 24.7403 13.6394 26.5273 15.339 27.4146C14.8528 28.753 14.4096 29.8312 14.1139 30.5202H12.1696C12.0034 30.4869 10.5213 30.0875 9.69969 26.4175C8.52812 21.184 7.68035 17.7003 6.95186 15.1416C7.45711 15.2467 7.97362 15.3001 8.49417 15.3001C9.00695 15.3001 9.52365 15.2482 10.0371 15.1427C10.0508 15.1399 10.0643 15.1367 10.0778 15.133L12.2015 14.5499C12.9376 15.9223 13.7834 17.5006 14.4507 18.7458ZM20.9787 10.8033L19.9235 11.0931V6.3959C19.9235 6.03999 19.6356 5.75137 19.2805 5.75137C18.9255 5.75137 18.6376 6.03999 18.6376 6.3959V11.446C18.6392 11.4456 18.6408 11.4451 18.6376 11.4461L9.75885 13.8839C7.89022 14.2619 5.9726 13.7862 4.49471 12.5775C3.01162 11.3647 2.16102 9.56868 2.16102 7.64997C2.16102 5.73126 3.01162 3.93527 4.49471 2.72245C5.64012 1.78569 7.04972 1.28933 8.4961 1.28933C8.91577 1.28933 9.33853 1.3311 9.75898 1.41611L20.9788 4.49672V10.8033H20.9787ZM26.07 11.87C26.07 12.1409 25.8927 12.2816 25.8164 12.3296C25.7402 12.3775 25.5366 12.4764 25.2934 12.3584L22.2647 10.8907V4.40932L25.2934 2.94159C25.5366 2.82371 25.7402 2.92251 25.8164 2.9704C25.8927 3.01836 26.07 3.15919 26.07 3.43002V11.87Z" fill="#656565"/>
</svg>
