<svg width="40" height="30" viewBox="0 0 40 30" fill="none" xmlns="http://www.w3.org/2000/svg">
<path d="M13.1894 0.751965C14.1567 -0.250655 15.7665 -0.250655 16.7676 0.751965C17.7349 1.72071 17.7349 3.33303 16.7676 4.29952L8.62416 12.4709H37.495C38.8907 12.4731 40 13.5841 40 14.9819C40 16.3797 38.8907 17.5269 37.495 17.5269H8.62416L16.7676 25.6643C17.7349 26.667 17.7349 28.2815 16.7676 29.248C15.7665 30.2507 14.1544 30.2507 13.1894 29.248L0.750809 16.7749C-0.250271 15.8062 -0.250271 14.1938 0.750809 13.2274L13.1894 0.751965Z" fill="#FF1400"/>
</svg>
