<svg width="28" height="28" viewBox="0 0 28 28" fill="none" xmlns="http://www.w3.org/2000/svg">
<rect width="27.999" height="28.0001" fill="black" fill-opacity="0"/>
<path d="M18.6843 1.93886C18.7611 1.8816 18.8393 1.86944 18.8916 1.86944C18.9457 1.86944 19.0817 1.88428 19.1772 2.01646L21.8353 5.7H24.1458L20.6803 0.897122C19.9851 -0.0657912 18.5335 -0.295257 17.582 0.412773L16.3281 1.34635L17.4299 2.87338L18.6843 1.93886Z" fill="#333333"/>
<path d="M12.2787 1.93974C12.3555 1.88247 12.4341 1.86944 12.4865 1.86944C12.5406 1.86944 12.6766 1.88429 12.7721 2.01646L15.4302 5.7H17.7408L14.2751 0.897122C13.5795 -0.0657912 12.1293 -0.295257 11.1769 0.412773L4.0752 5.7H7.2276L12.2787 1.93974Z" fill="#333333"/>
<path d="M15.0367 17.7964C15.0367 15.4792 16.8923 13.5936 19.1732 13.5936H26.1733V9.32501C26.1733 8.36935 25.41 7.59277 24.4687 7.59277H1.70461C0.76324 7.59271 0 8.36923 0 9.32495V26.2678C0 27.2246 0.76324 28 1.70461 28H24.4687C25.41 28 26.1733 27.2246 26.1733 26.2678V21.9991H19.1732C16.8922 21.9992 15.0367 20.1136 15.0367 17.7964Z" fill="#333333"/>
<path d="M27.0938 15.0137H19.1725C17.66 15.0137 16.4336 16.2597 16.4336 17.7968C16.4336 19.3341 17.66 20.5799 19.1725 20.5799H27.0939C27.5936 20.5799 27.9988 20.1676 27.9988 19.6611V15.9333C27.9988 15.4259 27.5935 15.0137 27.0938 15.0137Z" fill="#333333"/>
</svg>
