<svg width="12" height="12" viewBox="0 0 12 12" fill="none" xmlns="http://www.w3.org/2000/svg">
<path d="M8.90667 6.91857C9.18218 6.6493 9.38889 6.34521 9.52667 6.00645C9.66438 5.66769 9.73327 5.32241 9.73327 4.97062C9.73327 4.61882 9.6644 4.27137 9.52667 3.92827C9.38889 3.58516 9.18216 3.27897 8.90667 3.0097C8.63111 2.74042 8.31993 2.54064 7.97333 2.41035C7.62667 2.28005 7.27111 2.21491 6.90667 2.21491C6.5422 2.21491 6.1866 2.28005 5.84 2.41035C5.49333 2.54064 5.18222 2.74042 4.90667 3.0097C4.63111 3.27897 4.42444 3.58516 4.28667 3.92827C4.14889 4.27137 4.08 4.61882 4.08 4.97062C4.08 5.32241 4.14889 5.66769 4.28667 6.00645C4.42444 6.34521 4.63111 6.64923 4.90667 6.91857C5.18222 7.1878 5.49333 7.3898 5.84 7.52443C6.18667 7.65901 6.54222 7.72633 6.90667 7.72633C7.27111 7.72633 7.62667 7.65901 7.97333 7.52443C8.32 7.38978 8.63111 7.18782 8.90667 6.91857ZM10.5067 1.44622C11.0045 1.93265 11.3778 2.48205 11.6267 3.09443C11.8756 3.70681 12 4.33005 12 4.96414C12 5.59824 11.8756 6.22148 11.6267 6.83386C11.3778 7.44624 11.0044 7.99564 10.5067 8.48207C10.1067 8.87295 9.66222 9.18566 9.17333 9.42019C8.68449 9.65471 8.17784 9.811 7.65333 9.88918C7.12889 9.96742 6.60222 9.96308 6.07336 9.87621C5.54447 9.78935 5.03996 9.62431 4.56002 9.3811L2.26667 11.6221C2.13333 11.7524 1.98667 11.8479 1.82667 11.9088C1.66667 11.9696 1.5 12 1.32667 12C1.15333 12 0.986667 11.9696 0.826667 11.9088C0.666667 11.848 0.52 11.7524 0.386667 11.6221C0.253333 11.4919 0.155556 11.3485 0.0933333 11.1922C0.0311111 11.0358 4.15544e-09 10.873 4.15544e-09 10.7036C4.15544e-09 10.5342 0.0311111 10.3714 0.0933333 10.215C0.155556 10.0586 0.253333 9.91537 0.386667 9.78507L2.6 7.6222C2.28889 7.14445 2.07111 6.6319 1.94667 6.08469C1.82222 5.53744 1.78889 4.9902 1.84667 4.44303C1.90444 3.8958 2.05556 3.36377 2.3 2.84694C2.54444 2.33011 2.88 1.86322 3.30667 1.44628C3.80444 0.968537 4.36667 0.608058 4.99333 0.364843C5.62 0.121607 6.25778 0 6.90669 0C7.55551 0 8.19336 0.121607 8.81996 0.364822C9.44669 0.607994 10.0089 0.968473 10.5067 1.44622Z" fill="#C4C4C4"/>
</svg>
