<svg width="48" height="44" viewBox="0 0 48 44" fill="none" xmlns="http://www.w3.org/2000/svg">
<path d="M34.8285 0.11986L0.790581 13.1091C-0.311914 13.5298 -0.245124 15.0791 0.889762 15.4073L9.53917 17.9084L12.7671 27.9387C13.1043 28.9864 14.4601 29.3041 15.245 28.5193L19.717 24.0478L28.4913 30.3549C29.5651 31.1268 31.0944 30.5533 31.367 29.2766L37.1784 2.06859C37.463 0.735858 36.124 -0.374513 34.8285 0.11986ZM30.5611 6.15799L14.7506 19.8493C14.593 19.9858 14.4928 20.1747 14.4693 20.3794L13.8606 25.6784C13.8407 25.8512 13.5938 25.8741 13.541 25.708L11.0366 17.8054C10.9219 17.4436 11.0715 17.0516 11.4002 16.852L30.0706 5.51247C30.5 5.2515 30.9396 5.83031 30.5611 6.15799Z" transform="translate(12.7656 0.799805) rotate(22.5339)" fill="#61A8DE"/>
</svg>
