<svg width="27" height="17" viewBox="0 0 27 17" fill="none" xmlns="http://www.w3.org/2000/svg">
<path d="M13.7264 5.03485L13.7242 5.03471C11.6161 4.90904 9.75102 6.56967 9.90056 8.72513L13.7264 5.03485ZM13.7264 5.03485C15.4805 5.14332 16.9782 6.49483 17.0949 8.27232M13.7264 5.03485L17.0949 8.27232M17.0949 8.27232C17.2431 10.4265 15.3791 12.0859 13.2721 11.9609C13.2718 11.9609 13.2714 11.9608 13.2711 11.9608L13.3306 10.9626L17.0949 8.27232ZM25.6031 7.3606L25.6043 7.36213C26.1319 8.02908 26.1319 8.96646 25.6043 9.63341L25.6035 9.63448C22.5167 13.5261 18.2633 16 13.5 16C8.73682 16 4.4836 13.5263 1.39686 9.6394L1.39565 9.63787C0.868116 8.97092 0.868116 8.03354 1.39565 7.36659L1.3965 7.36552C4.48332 3.47387 8.73669 1 13.5 1C18.2632 1 22.5164 3.47374 25.6031 7.3606ZM17.3294 8.26719L17.3294 8.26687C17.2147 6.52644 15.7036 5.03645 13.7561 4.92104L13.7557 4.92101C11.3783 4.77921 9.53118 6.62266 9.67053 8.73222C9.78952 10.4694 11.3018 11.9597 13.2452 12.079C15.6224 12.2203 17.4692 10.3767 17.3294 8.26719Z" fill="#333333" stroke="white" stroke-width="2"/>
</svg>
