<svg width="61" height="82" viewBox="0 0 61 82" fill="none" xmlns="http://www.w3.org/2000/svg">
<path fill-rule="evenodd" clip-rule="evenodd" d="M58.2911 76.4825H53.4971L53.4966 67.7695C53.4966 59.0341 48.7907 51.0033 40.246 45.157C39.1648 44.4165 38.493 42.824 38.493 41.0004C38.493 39.1768 39.1648 37.5843 40.2455 36.8444C48.7907 30.9972 53.4966 22.9667 53.4971 14.2311V5.51776H58.2911C59.7871 5.51776 61 4.28224 61 2.75874C61 1.23525 59.7868 0 58.2911 0H2.70889C1.21293 0 0 1.23553 0 2.75874C0 4.28251 1.2132 5.51776 2.70889 5.51776H7.50287V14.2308C7.50287 22.967 12.2085 30.9975 20.7532 36.8438C21.8346 37.584 22.5064 39.1763 22.5064 41.0001C22.5064 42.824 21.8346 44.4163 20.7535 45.1562C12.2085 51.0031 7.50287 59.0336 7.50287 67.7692V76.4822H2.70889C1.21293 76.4822 0 77.7178 0 79.2413C0 80.765 1.2132 82 2.70889 82H58.2911C59.7871 82 61 80.7647 61 79.2413C61 77.7178 59.7868 76.4825 58.2911 76.4825ZM19.511 76.4825H41.4888C39.7041 72.2331 34.6078 66.8542 30.5 63.2962C26.3925 66.8542 21.2959 72.2331 19.511 76.4825Z" fill="#6B79F6"/>
<path d="M30.494 52.7382C31.2065 52.7382 31.9054 52.443 32.4091 51.9298C32.9156 51.4168 33.2029 50.7047 33.2029 49.9794C33.2029 49.2541 32.9156 48.5421 32.4091 48.0288C31.9054 47.5161 31.2065 47.2207 30.494 47.2207C29.7816 47.2207 29.0827 47.5158 28.579 48.0288C28.075 48.5421 27.7852 49.2541 27.7852 49.9794C27.7852 50.7047 28.0747 51.4168 28.579 51.9298C29.0827 52.4428 29.7816 52.7382 30.494 52.7382Z" fill="white"/>
<path d="M30.4941 38.1056C31.9903 38.1056 33.2029 36.8704 33.2029 35.3469V30.47C33.2029 28.9465 31.99 27.7109 30.4941 27.7109C28.9981 27.7109 27.7852 28.9465 27.7852 30.47V35.3469C27.7852 36.8704 28.9978 38.1056 30.4941 38.1056Z" fill="white"/>
</svg>
