<svg width="21" height="20" viewBox="0 0 21 20" fill="none" xmlns="http://www.w3.org/2000/svg">
<path d="M0 9.74718C0 15.1176 4.3536 19.4944 9.72403 19.4944C15.0945 19.4944 19.4481 15.1176 19.4481 9.74718C19.4481 4.37675 15.0945 0 9.72403 0C4.3536 0 0 4.37675 0 9.74718Z" transform="translate(0.574219 0.0898438)" fill="#8BC34A"/>
<path d="M7.5969 3.133C7.5969 1.4028 5.89595 0 3.79845 0C1.70095 0 0 1.4028 0 3.133C0 4.8632 1.70095 6.266 3.79845 6.266C4.14335 6.266 4.47154 6.21587 4.78985 6.14459L6.83721 7.04924L6.12918 5.59005C7.0165 5.01671 7.5969 4.13477 7.5969 3.133Z" transform="translate(8.78125 8.27051)" fill="white"/>
<path d="M4.55814 0C2.04053 0 0 1.7537 0 3.91625C0 5.16318 0.682202 6.26913 1.74045 6.98502L1.13954 8.22412L2.77667 7.50118C3.12764 7.62963 3.4923 7.73537 3.88202 7.78472C3.82884 7.54583 3.79845 7.30067 3.79845 7.04924C3.79845 4.88983 5.84278 3.133 8.35659 3.133C8.58678 3.133 8.81164 3.15258 9.03347 3.18078C8.63236 1.3699 6.78251 0 4.55814 0Z" transform="translate(4.22266 4.35449)" fill="white"/>
<path d="M0.569768 1.17487C0.884441 1.17487 1.13954 0.91187 1.13954 0.587437C1.13954 0.263005 0.884441 0 0.569768 0C0.255094 0 0 0.263005 0 0.587437C0 0.91187 0.255094 1.17487 0.569768 1.17487Z" transform="translate(6.69141 6.11621)" fill="#8BC34A"/>
<path d="M0.569768 1.17487C0.884441 1.17487 1.13954 0.91187 1.13954 0.587437C1.13954 0.263005 0.884441 0 0.569768 0C0.255094 0 0 0.263005 0 0.587437C0 0.91187 0.255094 1.17487 0.569768 1.17487Z" transform="translate(9.73047 6.11621)" fill="#8BC34A"/>
<path d="M0.569768 1.17487C0.884441 1.17487 1.13954 0.91187 1.13954 0.587437C1.13954 0.263005 0.884441 0 0.569768 0C0.255094 0 0 0.263005 0 0.587437C0 0.91187 0.255094 1.17487 0.569768 1.17487Z" transform="translate(10.8711 10.0332)" fill="#8BC34A"/>
<path d="M0.569768 1.17487C0.884441 1.17487 1.13954 0.91187 1.13954 0.587437C1.13954 0.263005 0.884441 0 0.569768 0C0.255094 0 0 0.263005 0 0.587437C0 0.91187 0.255094 1.17487 0.569768 1.17487Z" transform="translate(13.1484 10.0332)" fill="#8BC34A"/>
</svg>
