<svg width="20" height="20" viewBox="0 0 20 20" fill="none" xmlns="http://www.w3.org/2000/svg">
<path d="M0 9.74718C0 15.1176 4.3536 19.4944 9.72403 19.4944C15.0945 19.4944 19.4481 15.1176 19.4481 9.74718C19.4481 4.37675 15.0945 0 9.72403 0C4.3536 0 0 4.37675 0 9.74718Z" transform="translate(0.523438 0.0898438)" fill="#7AD06D"/>
<path d="M5.49137 0.00704613C2.41689 0.160258 -0.0093 2.84004 2.67998e-05 6.06146C0.0028666 7.04262 0.229188 7.96871 0.628431 8.78699L0.0154508 11.9011C-0.017708 12.0696 0.127456 12.2171 0.287348 12.1775L3.20296 11.4545C3.95203 11.845 4.79339 12.0706 5.68384 12.0848C8.82624 12.135 11.4465 9.52359 11.5444 6.23594C11.6494 2.7118 8.87034 -0.161376 5.49137 0.00704613ZM8.97032 9.38844C8.11646 10.2821 6.98118 10.7743 5.77365 10.7743C5.0666 10.7743 4.38967 10.6082 3.7616 10.2808L3.35556 10.0691L1.56799 10.5124L1.94426 8.60065L1.74422 8.19066C1.41817 7.52236 1.25285 6.79969 1.25285 6.04275C1.25285 4.77891 1.72309 3.59074 2.57695 2.69706C3.42319 1.81138 4.57698 1.31121 5.77374 1.31121C6.98126 1.31124 8.11649 1.8034 8.97035 2.69703C9.82421 3.59069 10.2944 4.77885 10.2945 6.04266C10.2944 7.29522 9.81656 8.5028 8.97032 9.38844Z" transform="translate(4.77344 3.74512)" fill="white"/>
<path d="M5.71111 4.22321L4.59276 3.88712C4.44573 3.84294 4.28739 3.88659 4.18026 4.00085L3.90678 4.29247C3.79146 4.41543 3.61648 4.45495 3.46385 4.39032C2.93481 4.16624 1.82194 3.13064 1.53774 2.61264C1.45575 2.46322 1.46931 2.27641 1.56998 2.14007L1.80875 1.81677C1.90229 1.69011 1.92203 1.52 1.86017 1.37357L1.38965 0.259798C1.27695 -0.00696761 0.951239 -0.0846227 0.738449 0.103731C0.426321 0.380025 0.0559775 0.799887 0.0109583 1.26503C-0.068417 2.08511 0.267626 3.1189 1.53838 4.36022C3.00645 5.79429 4.18207 5.98375 4.94751 5.78968C5.38166 5.67962 5.72862 5.2384 5.94759 4.87714C6.09688 4.63083 5.979 4.30372 5.71111 4.22321Z" transform="translate(7.64062 6.875)" fill="white"/>
</svg>
